<svg xmlns="http://www.w3.org/2000/svg" xmlns:xlink="http://www.w3.org/1999/xlink" width="1276.974" height="916.075" viewBox="0 0 1276.974 916.075">
  <defs>
    <linearGradient id="linear-gradient" x1="0.735" y1="-0.197" x2="0.181" y2="1.052" gradientUnits="objectBoundingBox">
      <stop offset="0" stop-color="#d5fe3e"/>
      <stop offset="0.23" stop-color="#6ccc43"/>
      <stop offset="0.397" stop-color="#61d875"/>
      <stop offset="0.837" stop-color="#6dae48"/>
      <stop offset="1" stop-color="#4d916a"/>
    </linearGradient>
  </defs>
  <path id="Path_2" data-name="Path 2" d="M1491.941,198.067c-113.426-47.4-279.106,40.874-355.094,125.817-65.428,73.144-118.147,161.864-199.738,214.18-92.245,59.143-209.672,63.713-300.23,125.65C561.4,715.338,507.4,796.325,471.68,884.068c-64.881,159.35-223.2,65.311-256.713,216.789H1491.941Z" transform="translate(-214.967 -184.782)" fill="url(#linear-gradient)"/>
</svg>